D:\Proyects\SpringBootRestApiExample\src\main\java\com\websystique\springboot\service\UserService.java
D:\Proyects\SpringBootRestApiExample\src\main\java\com\websystique\springboot\controller\RestApiController.java
D:\Proyects\SpringBootRestApiExample\src\main\java\com\websystique\springboot\model\User.java
D:\Proyects\SpringBootRestApiExample\src\main\java\com\websystique\springboot\service\UserServiceImpl.java
D:\Proyects\SpringBootRestApiExample\src\main\java\com\websystique\springboot\util\CustomErrorType.java
D:\Proyects\SpringBootRestApiExample\src\main\java\com\websystique\springboot\SpringBootRestApiApp.java
